<?xml version="1.0" encoding="utf-8"?>
<!-- Generator: Adobe Illustrator 15.1.0, SVG Export Plug-In . SVG Version: 6.00 Build 0)  -->
<!DOCTYPE svg PUBLIC "-//W3C//DTD SVG 1.1//EN" "http://www.w3.org/Graphics/SVG/1.1/DTD/svg11.dtd">
<svg version="1.1" id="Layer_1" xmlns="http://www.w3.org/2000/svg" xmlns:xlink="http://www.w3.org/1999/xlink" x="0px" y="0px"
	 width="160px" height="130px" viewBox="0 0 160 130" enable-background="new 0 0 160 130" xml:space="preserve">
<g>
	<g>
		<path fill="#FFFFFF" d="M49.724,52.446h-15.8c0.232-0.232,0.232-0.602,0.232-0.881V26.221c0-1.76-0.881-3.243-2.596-3.243
			c-0.834,0-1.575,0.602-1.575,1.483c0,0.557,0.323,1.112,0.881,1.343c0,0,0.325,0.141,0.325,0.604v25.576
			c0,0.463-0.325,0.602-0.325,0.602c-0.558,0.232-0.881,0.788-0.881,1.346c0,0.881,0.741,1.482,1.575,1.482h18.163
			c0.834,0,1.482-0.696,1.482-1.529C51.206,53.096,50.558,52.446,49.724,52.446z"/>
		<path fill="#FFFFFF" d="M115.601,27.611c0.188,0,0.463-0.093,0.646-0.185l3.801-2.409l3.799,2.409
			c0.188,0.092,0.464,0.185,0.648,0.185c0.65,0,1.112-0.604,1.112-1.158c0-0.232-0.091-0.509-0.323-0.696l-3.983-3.799
			c-0.326-0.277-0.789-0.51-1.253-0.51c-0.462,0-0.927,0.232-1.25,0.51l-3.985,3.799c-0.231,0.188-0.324,0.464-0.324,0.696
			C114.488,27.008,114.95,27.611,115.601,27.611z"/>
		<path fill="#FFFFFF" d="M95.767,31.317c-1.295,0-2.223,0.788-2.686,1.947l-5.839,14.872l-1.204,3.986h-0.046l-1.159-4.031
			l-5.7-14.827c-0.416-1.112-1.343-1.947-2.593-1.947c-0.974,0-1.809,0.51-1.809,1.575c0,0.744,0.465,1.346,1.159,1.483
			c0.323,0.045,0.556,0.232,0.649,0.556l7.877,20.435c-0.096,0.23-0.187,0.462-0.278,0.647c-1.067,2.642-2.501,3.801-2.501,3.801
			c-0.42,0.323-0.928,0.418-1.438,0.418c-1.021,0-1.993-0.649-2.921-0.649c-0.788,0-1.527,0.649-1.527,1.481
			c0,0.603,0.417,1.251,0.973,1.482c1.158,0.418,2.363,0.741,3.568,0.741c1.062,0,2.129-0.279,3.104-0.973
			c2.129-1.528,3.242-4.4,4.17-6.719l8.109-20.71c0.139-0.278,0.37-0.511,0.646-0.558c0.742-0.139,1.158-0.741,1.158-1.48
			C97.48,31.874,96.693,31.317,95.767,31.317z"/>
		<path fill="#FFFFFF" d="M62.355,31.087c-6.675,0-11.307,5.931-11.307,12.231c0,6.58,4.632,12.326,11.307,12.326
			c4.215,0,7.226-1.253,9.312-3.478c0.278-0.276,0.417-0.647,0.417-1.064c0-0.788-0.74-1.39-1.482-1.39
			c-0.417,0-0.834,0.14-1.16,0.463c-1.527,1.53-3.844,2.502-7.086,2.502c-4.355,0-7.692-3.753-8.296-7.829h18.118
			c0.787,0,1.574-0.648,1.574-1.53C73.752,36.97,69.073,31.087,62.355,31.087z M54.06,41.883c0.465-4.124,4.03-7.831,8.296-7.831
			c4.354,0,7.829,3.707,8.385,7.831H54.06z"/>
		<path fill="#FFFFFF" d="M129.037,52.585c0,0-0.324-0.139-0.324-0.602V39.334c0-1.298-0.047-2.643-0.462-3.707
			c-1.346-3.475-5.191-4.54-9.036-4.54c-2.224,0-4.494,0.418-6.21,1.065c-0.601,0.232-1.021,0.786-1.021,1.39
			c0,0.834,0.604,1.438,1.438,1.438c0.185,0,0.466-0.048,0.649-0.093c1.854-0.511,3.29-0.835,5.327-0.835
			c2.688,0,5.332,0.604,6.069,2.64c0.14,0.371,0.278,1.67,0.278,2.735v1.297c-1.48-0.927-3.707-1.529-5.698-1.529
			c-5.651,0-10.563,2.734-10.563,8.759c0,5.003,4.263,7.691,8.85,7.691c2.734,0,6.117-1.438,7.412-3.8c0,0.463,0,1.019,0.093,1.39
			c0.326,1.25,1.162,2.41,2.504,2.41c0.833,0,1.574-0.833,1.574-1.714C129.917,53.373,129.593,52.817,129.037,52.585z
			 M125.746,46.701c0,3.8-3.89,6.023-7.319,6.023c-2.965,0-5.977-1.529-5.977-4.82c0-4.075,3.704-5.744,7.46-5.744
			c2.037,0,3.753,0.279,5.836,1.438V46.701z"/>
		<path fill="#FFFFFF" d="M105.732,52.585c0,0-0.324-0.139-0.324-0.602V24.738c0-1.761-0.883-3.242-2.596-3.242
			c-0.834,0-1.575,0.601-1.575,1.481c0,0.558,0.325,1.112,0.88,1.346c0,0,0.324,0.138,0.324,0.602v27.242
			c0,1.764,0.879,3.246,2.596,3.246c0.833,0,1.574-0.602,1.574-1.482C106.611,53.373,106.287,52.817,105.732,52.585z"/>
	</g>
	<g>
		<path fill="#FFFFFF" d="M58.02,106.086h-5.362v-2.434h4.147c0.664,0,1.185-0.521,1.185-1.187c0-0.653-0.53-1.187-1.185-1.187
			h-4.147v-2.715h5.067c0.652,0,1.184-0.531,1.184-1.184c0-0.657-0.531-1.188-1.184-1.188h-6.626c-0.684,0-1.218,0.521-1.218,1.188
			c0,0.351,0.154,0.67,0.405,0.891v8.108c-0.254,0.222-0.405,0.539-0.405,0.89c0,0.666,0.534,1.184,1.218,1.184h6.921
			c0.654,0,1.186-0.535,1.186-1.197C59.205,106.602,58.684,106.086,58.02,106.086z"/>
		<path fill="#FFFFFF" d="M34.858,96.192h-3.734c-0.679,0-1.215,0.521-1.215,1.188c0,0.351,0.152,0.668,0.406,0.891v8.108
			c-0.254,0.222-0.406,0.539-0.406,0.89c0,0.666,0.536,1.188,1.215,1.188h3.734h0.006h0.002c3.11-0.034,5.454-2.672,5.454-6.136
			C40.32,99.353,38.407,96.192,34.858,96.192z M34.858,106.086h-2.174v-7.521h2.156c2.138,0.051,3.11,1.986,3.11,3.757
			C37.951,104.192,36.889,106.086,34.858,106.086z"/>
		<path fill="#FFFFFF" d="M108.866,101.605h-3.454c-0.666,0-1.184,0.525-1.184,1.2c0,0.643,0.529,1.169,1.184,1.169h1.896v1.108
			c-0.69,0.745-1.544,1.094-2.676,1.094c-2.107,0-3.822-1.726-3.822-3.854c0-2.125,1.715-3.853,3.822-3.853
			c0.893,0,1.721,0.294,2.454,0.897c0.858,0.562,1.876-0.086,1.876-0.992c0-0.4-0.188-0.766-0.464-0.947
			c-1.086-0.855-2.457-1.327-3.866-1.327c-1.658,0-3.211,0.639-4.373,1.8c-1.171,1.176-1.817,2.748-1.817,4.422
			c0,3.434,2.777,6.229,6.19,6.229c1.981,0,3.641-0.791,4.777-2.271c0.176-0.213,0.271-0.477,0.271-0.766v-1.83
			c0.25-0.22,0.402-0.539,0.402-0.892C110.082,102.127,109.547,101.605,108.866,101.605z"/>
		<path fill="#FFFFFF" d="M72.839,101.254c-1.193-0.406-2.301-0.87-2.301-1.556c0-0.797,0.955-1.213,1.894-1.213
			c0.585,0,1.296,0.245,1.735,0.595c0.225,0.18,0.484,0.273,0.76,0.273c0.647,0,1.194-0.535,1.194-1.168
			c0-0.358-0.177-0.705-0.484-0.949c-0.885-0.725-2.039-1.122-3.248-1.122c-2.047,0-4.221,1.245-4.221,3.548
			c0,2.531,2.762,3.47,3.675,3.782c1.615,0.544,2.438,0.946,2.438,1.635c0,0.704-1.08,1.085-2.097,1.085
			c-0.752,0-1.5-0.209-1.991-0.553c-0.817-0.595-1.977-0.05-1.977,0.896c0,0.404,0.211,0.777,0.559,1.012
			c0.973,0.634,2.247,1.016,3.409,1.016c2.153,0,4.467-1.089,4.467-3.475C76.65,102.555,74.268,101.739,72.839,101.254z"/>
		<path fill="#FFFFFF" d="M129.479,98.268c0.25-0.22,0.404-0.547,0.404-0.887c0-0.666-0.535-1.186-1.221-1.186
			c-0.916,0-1.555,0.729-1.555,1.773v5.44l-4.959-6.446c-0.172-0.229-0.58-0.768-1.353-0.768c-0.684,0-1.217,0.52-1.217,1.186
			c0,0.34,0.154,0.667,0.404,0.887v8.109c-0.254,0.225-0.404,0.544-0.404,0.895c0,0.662,0.533,1.182,1.217,1.182
			c0.919,0,1.555-0.73,1.555-1.775v-5.443l5.045,6.535c0.336,0.457,0.759,0.684,1.267,0.684c0.686,0,1.221-0.52,1.221-1.182
			c0-0.351-0.152-0.676-0.404-0.895V98.268z"/>
		<path fill="#FFFFFF" d="M87.449,96.192c-0.643,0-1.182,0.544-1.182,1.188v9.889c0,0.645,0.539,1.188,1.182,1.188
			c0.658,0,1.188-0.533,1.188-1.188v-9.889C88.638,96.724,88.107,96.192,87.449,96.192z"/>
	</g>
	<g>
		<path fill="#FFFFFF" d="M63.318,68.677c-5.435,0-9.857,4.405-9.857,9.821c0,5.457,4.423,9.895,9.857,9.895
			c5.457,0,9.896-4.438,9.896-9.895C73.215,73.082,68.775,68.677,63.318,68.677z M63.318,85.396c-3.802,0-6.896-3.092-6.896-6.898
			c0-3.764,3.094-6.823,6.896-6.823c3.824,0,6.935,3.06,6.935,6.823C70.253,82.305,67.143,85.396,63.318,85.396z"/>
		<path fill="#FFFFFF" d="M130.091,78.498c0-5.416-4.117-9.821-9.178-9.821c-5.623,0-9.104,5.097-9.104,9.821
			c0,5.549,3.999,9.895,9.104,9.895c3.214,0,5.726-0.943,7.461-2.795c0.278-0.279,0.426-0.65,0.426-1.069
			c0-0.856-0.774-1.431-1.499-1.431c-0.44,0-0.847,0.165-1.146,0.462c-1.218,1.22-2.981,1.837-5.241,1.837
			c-3.231,0-5.443-2.691-6.003-5.363h13.608C129.278,80.033,130.091,79.416,130.091,78.498z M114.896,77.039
			c0.524-2.99,3.146-5.364,6.017-5.364c3.205,0,5.54,2.661,6.081,5.364H114.896z"/>
		<path fill="#FFFFFF" d="M109.797,69.273c-1.078-0.396-2.217-0.597-3.387-0.597c-1.604,0-3.112,0.643-4.114,1.717
			c-0.003-0.007-0.004-0.013-0.007-0.019c-0.361-0.951-1.14-1.521-2.086-1.521c-0.879,0-1.569,0.659-1.569,1.503
			c0,0.59,0.36,1.139,0.875,1.354c0.014,0.01,0.056,0.043,0.056,0.151v13.347c0,0.105-0.04,0.139-0.035,0.139
			c-0.535,0.226-0.896,0.774-0.896,1.367c0,0.841,0.69,1.498,1.569,1.498c1.411,0,2.36-1.15,2.36-2.861V74.73
			c0-2.049,1.993-2.982,3.847-2.982c0.724,0,1.585,0.148,2.364,0.41c0.172,0.057,0.349,0.086,0.526,0.086
			c0.396,0,0.771-0.141,1.051-0.401c0.3-0.276,0.466-0.666,0.466-1.095C110.817,70.047,110.456,69.525,109.797,69.273z"/>
		<path fill="#FFFFFF" d="M85.73,68.677c-5.437,0-9.859,4.405-9.859,9.821c0,5.457,4.423,9.895,9.859,9.895
			c5.456,0,9.896-4.438,9.896-9.895C95.626,73.082,91.187,68.677,85.73,68.677z M85.73,85.396c-3.803,0-6.899-3.092-6.899-6.898
			c0-3.764,3.097-6.823,6.899-6.823c3.822,0,6.933,3.06,6.933,6.823C92.663,82.305,89.553,85.396,85.73,85.396z"/>
		<path fill="#FFFFFF" d="M50.727,70.082c0-0.836-0.678-1.491-1.544-1.491c-0.781,0-1.445,0.407-1.823,1.123
			c-0.046,0.089-0.765,1.345-7.041,12.286C34.04,71.057,33.32,69.8,33.27,69.701c-0.375-0.706-1.038-1.11-1.816-1.11
			c-0.867,0-1.545,0.655-1.545,1.491c0,0.523,0.274,1.008,0.693,1.26l0.009,14.406c-0.428,0.264-0.702,0.744-0.702,1.264
			c0,0.835,0.678,1.49,1.545,1.49c1.254,0,2.129-1.028,2.129-2.502v-9.557L39,85.752c0.251,0.507,0.743,0.807,1.318,0.807
			c0.564,0,1.066-0.303,1.299-0.77l5.436-9.365V86c0,1.474,0.876,2.502,2.13,2.502c0.866,0,1.544-0.655,1.544-1.49
			c0-0.52-0.271-1-0.691-1.257l-0.002-14.419C50.456,71.074,50.727,70.596,50.727,70.082z"/>
	</g>
</g>
</svg>
